{
  "properties": [
    {
      "name": "spring.http.multipart.max-request-size",
      "type": "java.lang.String",
      "description": "Description for spring.http.multipart.max-request-size."
    },
    {
      "name": "ALLOWED_BATTERY_CAPACITY_TO_DELIVERED",
      "type": "java.lang.String",
      "description": "Description for ALLOWED_BATTERY_CAPACITY_TO_DELIVERED."
    }
  ] }